{
  "project_info": {
    "project_number": "644983599736",
    "firebase_url": "https://oneqlikgpsparents.firebaseio.com",
    "project_id": "oneqlikgpsparents",
    "storage_bucket": "oneqlikgpsparents.appspot.com"
  },
  "client": [
    {
      "client_info": {
        "mobilesdk_app_id": "1:644983599736:android:0f7a0bc5443de747",
        "android_client_info": {
          "package_name": "acumenTrack.ionic.starter"
        }
      },
      "oauth_client": [
        {
          "client_id": "644983599736-reujtdsm01muvecuan2ophu7dqfc41g0.apps.googleusercontent.com",
          "client_type": 3
        }
      ],
      "api_key": [
        {
          "current_key": "AIzaSyBQHVM3Kv8VwprWxS3RHm_3YOshverbCbY"
        }
      ],
      "services": {
        "appinvite_service": {
          "other_platform_oauth_client": [
            {
              "client_id": "644983599736-reujtdsm01muvecuan2ophu7dqfc41g0.apps.googleusercontent.com",
              "client_type": 3
            },
            {
              "client_id": "644983599736-q2dhb37oasvmhobti58cbnk66neel1s9.apps.googleusercontent.com",
              "client_type": 2,
              "ios_info": {
                "bundle_id": "com.OneQlikVTSdemo.ionic"
              }
            }
          ]
        }
      }
    },
    {
      "client_info": {
        "mobilesdk_app_id": "1:644983599736:android:b7c2fa746df105c0",
        "android_client_info": {
          "package_name": "com.HLTOneQlik.ionic"
        }
      },
      "oauth_client": [
        {
          "client_id": "644983599736-reujtdsm01muvecuan2ophu7dqfc41g0.apps.googleusercontent.com",
          "client_type": 3
        }
      ],
      "api_key": [
        {
          "current_key": "AIzaSyBQHVM3Kv8VwprWxS3RHm_3YOshverbCbY"
        }
      ],
      "services": {
        "appinvite_service": {
          "other_platform_oauth_client": [
            {
              "client_id": "644983599736-reujtdsm01muvecuan2ophu7dqfc41g0.apps.googleusercontent.com",
              "client_type": 3
            },
            {
              "client_id": "644983599736-q2dhb37oasvmhobti58cbnk66neel1s9.apps.googleusercontent.com",
              "client_type": 2,
              "ios_info": {
                "bundle_id": "com.OneQlikVTSdemo.ionic"
              }
            }
          ]
        }
      }
    },
    {
      "client_info": {
        "mobilesdk_app_id": "1:644983599736:android:9b04c0d24a97a854",
        "android_client_info": {
          "package_name": "com.OneQlikVTS.ionic"
        }
      },
      "oauth_client": [
        {
          "client_id": "644983599736-reujtdsm01muvecuan2ophu7dqfc41g0.apps.googleusercontent.com",
          "client_type": 3
        }
      ],
      "api_key": [
        {
          "current_key": "AIzaSyBQHVM3Kv8VwprWxS3RHm_3YOshverbCbY"
        }
      ],
      "services": {
        "appinvite_service": {
          "other_platform_oauth_client": [
            {
              "client_id": "644983599736-reujtdsm01muvecuan2ophu7dqfc41g0.apps.googleusercontent.com",
              "client_type": 3
            },
            {
              "client_id": "644983599736-q2dhb37oasvmhobti58cbnk66neel1s9.apps.googleusercontent.com",
              "client_type": 2,
              "ios_info": {
                "bundle_id": "com.OneQlikVTSdemo.ionic"
              }
            }
          ]
        }
      }
    },
    {
      "client_info": {
        "mobilesdk_app_id": "1:644983599736:android:42b3cf38a65feb47",
        "android_client_info": {
          "package_name": "com.OneQlikVTS_demo.ionic"
        }
      },
      "oauth_client": [
        {
          "client_id": "644983599736-reujtdsm01muvecuan2ophu7dqfc41g0.apps.googleusercontent.com",
          "client_type": 3
        }
      ],
      "api_key": [
        {
          "current_key": "AIzaSyBQHVM3Kv8VwprWxS3RHm_3YOshverbCbY"
        }
      ],
      "services": {
        "appinvite_service": {
          "other_platform_oauth_client": [
            {
              "client_id": "644983599736-reujtdsm01muvecuan2ophu7dqfc41g0.apps.googleusercontent.com",
              "client_type": 3
            },
            {
              "client_id": "644983599736-q2dhb37oasvmhobti58cbnk66neel1s9.apps.googleusercontent.com",
              "client_type": 2,
              "ios_info": {
                "bundle_id": "com.OneQlikVTSdemo.ionic"
              }
            }
          ]
        }
      }
    },
    {
      "client_info": {
        "mobilesdk_app_id": "1:644983599736:android:c2119de2e0e67e1e",
        "android_client_info": {
          "package_name": "com.PyeGPS.ionic"
        }
      },
      "oauth_client": [
        {
          "client_id": "644983599736-reujtdsm01muvecuan2ophu7dqfc41g0.apps.googleusercontent.com",
          "client_type": 3
        }
      ],
      "api_key": [
        {
          "current_key": "AIzaSyBQHVM3Kv8VwprWxS3RHm_3YOshverbCbY"
        }
      ],
      "services": {
        "appinvite_service": {
          "other_platform_oauth_client": [
            {
              "client_id": "644983599736-reujtdsm01muvecuan2ophu7dqfc41g0.apps.googleusercontent.com",
              "client_type": 3
            },
            {
              "client_id": "644983599736-q2dhb37oasvmhobti58cbnk66neel1s9.apps.googleusercontent.com",
              "client_type": 2,
              "ios_info": {
                "bundle_id": "com.OneQlikVTSdemo.ionic"
              }
            }
          ]
        }
      }
    },
    {
      "client_info": {
        "mobilesdk_app_id": "1:644983599736:android:e61c580968ea8f05",
        "android_client_info": {
          "package_name": "com.Rayone.ionic"
        }
      },
      "oauth_client": [
        {
          "client_id": "644983599736-reujtdsm01muvecuan2ophu7dqfc41g0.apps.googleusercontent.com",
          "client_type": 3
        }
      ],
      "api_key": [
        {
          "current_key": "AIzaSyBQHVM3Kv8VwprWxS3RHm_3YOshverbCbY"
        }
      ],
      "services": {
        "appinvite_service": {
          "other_platform_oauth_client": [
            {
              "client_id": "644983599736-reujtdsm01muvecuan2ophu7dqfc41g0.apps.googleusercontent.com",
              "client_type": 3
            },
            {
              "client_id": "644983599736-q2dhb37oasvmhobti58cbnk66neel1s9.apps.googleusercontent.com",
              "client_type": 2,
              "ios_info": {
                "bundle_id": "com.OneQlikVTSdemo.ionic"
              }
            }
          ]
        }
      }
    },
    {
      "client_info": {
        "mobilesdk_app_id": "1:644983599736:android:6447f606f0e4cf21",
        "android_client_info": {
          "package_name": "com.VehtraVTS.ionic"
        }
      },
      "oauth_client": [
        {
          "client_id": "644983599736-reujtdsm01muvecuan2ophu7dqfc41g0.apps.googleusercontent.com",
          "client_type": 3
        }
      ],
      "api_key": [
        {
          "current_key": "AIzaSyBQHVM3Kv8VwprWxS3RHm_3YOshverbCbY"
        }
      ],
      "services": {
        "appinvite_service": {
          "other_platform_oauth_client": [
            {
              "client_id": "644983599736-reujtdsm01muvecuan2ophu7dqfc41g0.apps.googleusercontent.com",
              "client_type": 3
            },
            {
              "client_id": "644983599736-q2dhb37oasvmhobti58cbnk66neel1s9.apps.googleusercontent.com",
              "client_type": 2,
              "ios_info": {
                "bundle_id": "com.OneQlikVTSdemo.ionic"
              }
            }
          ]
        }
      }
    },
    {
      "client_info": {
        "mobilesdk_app_id": "1:644983599736:android:019d2397bf6b0509",
        "android_client_info": {
          "package_name": "com.VehtraVTSiOS.ionic"
        }
      },
      "oauth_client": [
        {
          "client_id": "644983599736-reujtdsm01muvecuan2ophu7dqfc41g0.apps.googleusercontent.com",
          "client_type": 3
        }
      ],
      "api_key": [
        {
          "current_key": "AIzaSyBQHVM3Kv8VwprWxS3RHm_3YOshverbCbY"
        }
      ],
      "services": {
        "appinvite_service": {
          "other_platform_oauth_client": [
            {
              "client_id": "644983599736-reujtdsm01muvecuan2ophu7dqfc41g0.apps.googleusercontent.com",
              "client_type": 3
            },
            {
              "client_id": "644983599736-q2dhb37oasvmhobti58cbnk66neel1s9.apps.googleusercontent.com",
              "client_type": 2,
              "ios_info": {
                "bundle_id": "com.OneQlikVTSdemo.ionic"
              }
            }
          ]
        }
      }
    },
    {
      "client_info": {
        "mobilesdk_app_id": "1:644983599736:android:e5c341b47efe7257",
        "android_client_info": {
          "package_name": "com.Vtsvrgps.ionic"
        }
      },
      "oauth_client": [
        {
          "client_id": "644983599736-reujtdsm01muvecuan2ophu7dqfc41g0.apps.googleusercontent.com",
          "client_type": 3
        }
      ],
      "api_key": [
        {
          "current_key": "AIzaSyBQHVM3Kv8VwprWxS3RHm_3YOshverbCbY"
        }
      ],
      "services": {
        "appinvite_service": {
          "other_platform_oauth_client": [
            {
              "client_id": "644983599736-reujtdsm01muvecuan2ophu7dqfc41g0.apps.googleusercontent.com",
              "client_type": 3
            },
            {
              "client_id": "644983599736-q2dhb37oasvmhobti58cbnk66neel1s9.apps.googleusercontent.com",
              "client_type": 2,
              "ios_info": {
                "bundle_id": "com.OneQlikVTSdemo.ionic"
              }
            }
          ]
        }
      }
    },
    {
      "client_info": {
        "mobilesdk_app_id": "1:644983599736:android:07ce6b15f04f6b04",
        "android_client_info": {
          "package_name": "com.Vtsvrgpsnew.ionic"
        }
      },
      "oauth_client": [
        {
          "client_id": "644983599736-reujtdsm01muvecuan2ophu7dqfc41g0.apps.googleusercontent.com",
          "client_type": 3
        }
      ],
      "api_key": [
        {
          "current_key": "AIzaSyBQHVM3Kv8VwprWxS3RHm_3YOshverbCbY"
        }
      ],
      "services": {
        "appinvite_service": {
          "other_platform_oauth_client": [
            {
              "client_id": "644983599736-reujtdsm01muvecuan2ophu7dqfc41g0.apps.googleusercontent.com",
              "client_type": 3
            },
            {
              "client_id": "644983599736-q2dhb37oasvmhobti58cbnk66neel1s9.apps.googleusercontent.com",
              "client_type": 2,
              "ios_info": {
                "bundle_id": "com.OneQlikVTSdemo.ionic"
              }
            }
          ]
        }
      }
    },
    {
      "client_info": {
        "mobilesdk_app_id": "1:644983599736:android:bd8ad9a4b4f30e0b",
        "android_client_info": {
          "package_name": "com.acumenTrackTraders.ionic"
        }
      },
      "oauth_client": [
        {
          "client_id": "644983599736-reujtdsm01muvecuan2ophu7dqfc41g0.apps.googleusercontent.com",
          "client_type": 3
        }
      ],
      "api_key": [
        {
          "current_key": "AIzaSyBQHVM3Kv8VwprWxS3RHm_3YOshverbCbY"
        }
      ],
      "services": {
        "appinvite_service": {
          "other_platform_oauth_client": [
            {
              "client_id": "644983599736-reujtdsm01muvecuan2ophu7dqfc41g0.apps.googleusercontent.com",
              "client_type": 3
            },
            {
              "client_id": "644983599736-q2dhb37oasvmhobti58cbnk66neel1s9.apps.googleusercontent.com",
              "client_type": 2,
              "ios_info": {
                "bundle_id": "com.OneQlikVTSdemo.ionic"
              }
            }
          ]
        }
      }
    },
    {
      "client_info": {
        "mobilesdk_app_id": "1:644983599736:android:61c8f1536370a91dae738d",
        "android_client_info": {
          "package_name": "com.annai.ionic"
        }
      },
      "oauth_client": [
        {
          "client_id": "644983599736-reujtdsm01muvecuan2ophu7dqfc41g0.apps.googleusercontent.com",
          "client_type": 3
        }
      ],
      "api_key": [
        {
          "current_key": "AIzaSyBQHVM3Kv8VwprWxS3RHm_3YOshverbCbY"
        }
      ],
      "services": {
        "appinvite_service": {
          "other_platform_oauth_client": [
            {
              "client_id": "644983599736-reujtdsm01muvecuan2ophu7dqfc41g0.apps.googleusercontent.com",
              "client_type": 3
            },
            {
              "client_id": "644983599736-q2dhb37oasvmhobti58cbnk66neel1s9.apps.googleusercontent.com",
              "client_type": 2,
              "ios_info": {
                "bundle_id": "com.OneQlikVTSdemo.ionic"
              }
            }
          ]
        }
      }
    },
    {
      "client_info": {
        "mobilesdk_app_id": "1:644983599736:android:b330224d6fd1df31ae738d",
        "android_client_info": {
          "package_name": "com.annaigps.ionic"
        }
      },
      "oauth_client": [
        {
          "client_id": "644983599736-reujtdsm01muvecuan2ophu7dqfc41g0.apps.googleusercontent.com",
          "client_type": 3
        }
      ],
      "api_key": [
        {
          "current_key": "AIzaSyBQHVM3Kv8VwprWxS3RHm_3YOshverbCbY"
        }
      ],
      "services": {
        "appinvite_service": {
          "other_platform_oauth_client": [
            {
              "client_id": "644983599736-reujtdsm01muvecuan2ophu7dqfc41g0.apps.googleusercontent.com",
              "client_type": 3
            },
            {
              "client_id": "644983599736-q2dhb37oasvmhobti58cbnk66neel1s9.apps.googleusercontent.com",
              "client_type": 2,
              "ios_info": {
                "bundle_id": "com.OneQlikVTSdemo.ionic"
              }
            }
          ]
        }
      }
    },
    {
      "client_info": {
        "mobilesdk_app_id": "1:644983599736:android:8bd95fc57bf6cd7d",
        "android_client_info": {
          "package_name": "com.autobuddyVTS.ionic"
        }
      },
      "oauth_client": [
        {
          "client_id": "644983599736-reujtdsm01muvecuan2ophu7dqfc41g0.apps.googleusercontent.com",
          "client_type": 3
        }
      ],
      "api_key": [
        {
          "current_key": "AIzaSyBQHVM3Kv8VwprWxS3RHm_3YOshverbCbY"
        }
      ],
      "services": {
        "appinvite_service": {
          "other_platform_oauth_client": [
            {
              "client_id": "644983599736-reujtdsm01muvecuan2ophu7dqfc41g0.apps.googleusercontent.com",
              "client_type": 3
            },
            {
              "client_id": "644983599736-q2dhb37oasvmhobti58cbnk66neel1s9.apps.googleusercontent.com",
              "client_type": 2,
              "ios_info": {
                "bundle_id": "com.OneQlikVTSdemo.ionic"
              }
            }
          ]
        }
      }
    },
    {
      "client_info": {
        "mobilesdk_app_id": "1:644983599736:android:4636d75df748e30a",
        "android_client_info": {
          "package_name": "com.automapgps.ionic"
        }
      },
      "oauth_client": [
        {
          "client_id": "644983599736-reujtdsm01muvecuan2ophu7dqfc41g0.apps.googleusercontent.com",
          "client_type": 3
        }
      ],
      "api_key": [
        {
          "current_key": "AIzaSyBQHVM3Kv8VwprWxS3RHm_3YOshverbCbY"
        }
      ],
      "services": {
        "appinvite_service": {
          "other_platform_oauth_client": [
            {
              "client_id": "644983599736-reujtdsm01muvecuan2ophu7dqfc41g0.apps.googleusercontent.com",
              "client_type": 3
            },
            {
              "client_id": "644983599736-q2dhb37oasvmhobti58cbnk66neel1s9.apps.googleusercontent.com",
              "client_type": 2,
              "ios_info": {
                "bundle_id": "com.OneQlikVTSdemo.ionic"
              }
            }
          ]
        }
      }
    },
    {
      "client_info": {
        "mobilesdk_app_id": "1:644983599736:android:182ef6a11b16ef8f",
        "android_client_info": {
          "package_name": "com.babycab.ionic"
        }
      },
      "oauth_client": [
        {
          "client_id": "644983599736-reujtdsm01muvecuan2ophu7dqfc41g0.apps.googleusercontent.com",
          "client_type": 3
        }
      ],
      "api_key": [
        {
          "current_key": "AIzaSyBQHVM3Kv8VwprWxS3RHm_3YOshverbCbY"
        }
      ],
      "services": {
        "appinvite_service": {
          "other_platform_oauth_client": [
            {
              "client_id": "644983599736-reujtdsm01muvecuan2ophu7dqfc41g0.apps.googleusercontent.com",
              "client_type": 3
            },
            {
              "client_id": "644983599736-q2dhb37oasvmhobti58cbnk66neel1s9.apps.googleusercontent.com",
              "client_type": 2,
              "ios_info": {
                "bundle_id": "com.OneQlikVTSdemo.ionic"
              }
            }
          ]
        }
      }
    },
    {
      "client_info": {
        "mobilesdk_app_id": "1:644983599736:android:f205c55822980c4f",
        "android_client_info": {
          "package_name": "com.dsgps.ionic"
        }
      },
      "oauth_client": [
        {
          "client_id": "644983599736-reujtdsm01muvecuan2ophu7dqfc41g0.apps.googleusercontent.com",
          "client_type": 3
        }
      ],
      "api_key": [
        {
          "current_key": "AIzaSyBQHVM3Kv8VwprWxS3RHm_3YOshverbCbY"
        }
      ],
      "services": {
        "appinvite_service": {
          "other_platform_oauth_client": [
            {
              "client_id": "644983599736-reujtdsm01muvecuan2ophu7dqfc41g0.apps.googleusercontent.com",
              "client_type": 3
            },
            {
              "client_id": "644983599736-q2dhb37oasvmhobti58cbnk66neel1s9.apps.googleusercontent.com",
              "client_type": 2,
              "ios_info": {
                "bundle_id": "com.OneQlikVTSdemo.ionic"
              }
            }
          ]
        }
      }
    },
    {
      "client_info": {
        "mobilesdk_app_id": "1:644983599736:android:ee4b3e4c019f83a7",
        "android_client_info": {
          "package_name": "com.ePayGPS.ionic"
        }
      },
      "oauth_client": [
        {
          "client_id": "644983599736-reujtdsm01muvecuan2ophu7dqfc41g0.apps.googleusercontent.com",
          "client_type": 3
        }
      ],
      "api_key": [
        {
          "current_key": "AIzaSyBQHVM3Kv8VwprWxS3RHm_3YOshverbCbY"
        }
      ],
      "services": {
        "appinvite_service": {
          "other_platform_oauth_client": [
            {
              "client_id": "644983599736-reujtdsm01muvecuan2ophu7dqfc41g0.apps.googleusercontent.com",
              "client_type": 3
            },
            {
              "client_id": "644983599736-q2dhb37oasvmhobti58cbnk66neel1s9.apps.googleusercontent.com",
              "client_type": 2,
              "ios_info": {
                "bundle_id": "com.OneQlikVTSdemo.ionic"
              }
            }
          ]
        }
      }
    },
    {
      "client_info": {
        "mobilesdk_app_id": "1:644983599736:android:1587f81558992380",
        "android_client_info": {
          "package_name": "com.echoride.ionic"
        }
      },
      "oauth_client": [
        {
          "client_id": "644983599736-reujtdsm01muvecuan2ophu7dqfc41g0.apps.googleusercontent.com",
          "client_type": 3
        }
      ],
      "api_key": [
        {
          "current_key": "AIzaSyBQHVM3Kv8VwprWxS3RHm_3YOshverbCbY"
        }
      ],
      "services": {
        "appinvite_service": {
          "other_platform_oauth_client": [
            {
              "client_id": "644983599736-reujtdsm01muvecuan2ophu7dqfc41g0.apps.googleusercontent.com",
              "client_type": 3
            },
            {
              "client_id": "644983599736-q2dhb37oasvmhobti58cbnk66neel1s9.apps.googleusercontent.com",
              "client_type": 2,
              "ios_info": {
                "bundle_id": "com.OneQlikVTSdemo.ionic"
              }
            }
          ]
        }
      }
    },
    {
      "client_info": {
        "mobilesdk_app_id": "1:644983599736:android:9017ae7bb13c2811",
        "android_client_info": {
          "package_name": "com.exsensorplusgps.ionic"
        }
      },
      "oauth_client": [
        {
          "client_id": "644983599736-reujtdsm01muvecuan2ophu7dqfc41g0.apps.googleusercontent.com",
          "client_type": 3
        }
      ],
      "api_key": [
        {
          "current_key": "AIzaSyBQHVM3Kv8VwprWxS3RHm_3YOshverbCbY"
        }
      ],
      "services": {
        "appinvite_service": {
          "other_platform_oauth_client": [
            {
              "client_id": "644983599736-reujtdsm01muvecuan2ophu7dqfc41g0.apps.googleusercontent.com",
              "client_type": 3
            },
            {
              "client_id": "644983599736-q2dhb37oasvmhobti58cbnk66neel1s9.apps.googleusercontent.com",
              "client_type": 2,
              "ios_info": {
                "bundle_id": "com.OneQlikVTSdemo.ionic"
              }
            }
          ]
        }
      }
    },
    {
      "client_info": {
        "mobilesdk_app_id": "1:644983599736:android:ca36fabf28511ff4ae738d",
        "android_client_info": {
          "package_name": "com.fastracxgps.ionic"
        }
      },
      "oauth_client": [
        {
          "client_id": "644983599736-reujtdsm01muvecuan2ophu7dqfc41g0.apps.googleusercontent.com",
          "client_type": 3
        }
      ],
      "api_key": [
        {
          "current_key": "AIzaSyBQHVM3Kv8VwprWxS3RHm_3YOshverbCbY"
        }
      ],
      "services": {
        "appinvite_service": {
          "other_platform_oauth_client": [
            {
              "client_id": "644983599736-reujtdsm01muvecuan2ophu7dqfc41g0.apps.googleusercontent.com",
              "client_type": 3
            },
            {
              "client_id": "644983599736-q2dhb37oasvmhobti58cbnk66neel1s9.apps.googleusercontent.com",
              "client_type": 2,
              "ios_info": {
                "bundle_id": "com.OneQlikVTSdemo.ionic"
              }
            }
          ]
        }
      }
    },
    {
      "client_info": {
        "mobilesdk_app_id": "1:644983599736:android:8c15c198e81929cb",
        "android_client_info": {
          "package_name": "com.feldaebike.ionic"
        }
      },
      "oauth_client": [
        {
          "client_id": "644983599736-reujtdsm01muvecuan2ophu7dqfc41g0.apps.googleusercontent.com",
          "client_type": 3
        }
      ],
      "api_key": [
        {
          "current_key": "AIzaSyBQHVM3Kv8VwprWxS3RHm_3YOshverbCbY"
        }
      ],
      "services": {
        "appinvite_service": {
          "other_platform_oauth_client": [
            {
              "client_id": "644983599736-reujtdsm01muvecuan2ophu7dqfc41g0.apps.googleusercontent.com",
              "client_type": 3
            },
            {
              "client_id": "644983599736-q2dhb37oasvmhobti58cbnk66neel1s9.apps.googleusercontent.com",
              "client_type": 2,
              "ios_info": {
                "bundle_id": "com.OneQlikVTSdemo.ionic"
              }
            }
          ]
        }
      }
    },
    {
      "client_info": {
        "mobilesdk_app_id": "1:644983599736:android:f74898995bc175d2",
        "android_client_info": {
          "package_name": "com.gemeni.ionic"
        }
      },
      "oauth_client": [
        {
          "client_id": "644983599736-reujtdsm01muvecuan2ophu7dqfc41g0.apps.googleusercontent.com",
          "client_type": 3
        }
      ],
      "api_key": [
        {
          "current_key": "AIzaSyBQHVM3Kv8VwprWxS3RHm_3YOshverbCbY"
        }
      ],
      "services": {
        "appinvite_service": {
          "other_platform_oauth_client": [
            {
              "client_id": "644983599736-reujtdsm01muvecuan2ophu7dqfc41g0.apps.googleusercontent.com",
              "client_type": 3
            },
            {
              "client_id": "644983599736-q2dhb37oasvmhobti58cbnk66neel1s9.apps.googleusercontent.com",
              "client_type": 2,
              "ios_info": {
                "bundle_id": "com.OneQlikVTSdemo.ionic"
              }
            }
          ]
        }
      }
    },
    {
      "client_info": {
        "mobilesdk_app_id": "1:644983599736:android:ed2197a7f8e4c2ed",
        "android_client_info": {
          "package_name": "com.goetrack.app"
        }
      },
      "oauth_client": [
        {
          "client_id": "644983599736-reujtdsm01muvecuan2ophu7dqfc41g0.apps.googleusercontent.com",
          "client_type": 3
        }
      ],
      "api_key": [
        {
          "current_key": "AIzaSyBQHVM3Kv8VwprWxS3RHm_3YOshverbCbY"
        }
      ],
      "services": {
        "appinvite_service": {
          "other_platform_oauth_client": [
            {
              "client_id": "644983599736-reujtdsm01muvecuan2ophu7dqfc41g0.apps.googleusercontent.com",
              "client_type": 3
            },
            {
              "client_id": "644983599736-q2dhb37oasvmhobti58cbnk66neel1s9.apps.googleusercontent.com",
              "client_type": 2,
              "ios_info": {
                "bundle_id": "com.OneQlikVTSdemo.ionic"
              }
            }
          ]
        }
      }
    },
    {
      "client_info": {
        "mobilesdk_app_id": "1:644983599736:android:acce72f57349a5b1",
        "android_client_info": {
          "package_name": "com.gpswaleVTS.ionic"
        }
      },
      "oauth_client": [
        {
          "client_id": "644983599736-reujtdsm01muvecuan2ophu7dqfc41g0.apps.googleusercontent.com",
          "client_type": 3
        }
      ],
      "api_key": [
        {
          "current_key": "AIzaSyBQHVM3Kv8VwprWxS3RHm_3YOshverbCbY"
        }
      ],
      "services": {
        "appinvite_service": {
          "other_platform_oauth_client": [
            {
              "client_id": "644983599736-reujtdsm01muvecuan2ophu7dqfc41g0.apps.googleusercontent.com",
              "client_type": 3
            },
            {
              "client_id": "644983599736-q2dhb37oasvmhobti58cbnk66neel1s9.apps.googleusercontent.com",
              "client_type": 2,
              "ios_info": {
                "bundle_id": "com.OneQlikVTSdemo.ionic"
              }
            }
          ]
        }
      }
    },
    {
      "client_info": {
        "mobilesdk_app_id": "1:644983599736:android:9b8780970d505dac",
        "android_client_info": {
          "package_name": "com.hnhitracker.ionic"
        }
      },
      "oauth_client": [
        {
          "client_id": "644983599736-reujtdsm01muvecuan2ophu7dqfc41g0.apps.googleusercontent.com",
          "client_type": 3
        }
      ],
      "api_key": [
        {
          "current_key": "AIzaSyBQHVM3Kv8VwprWxS3RHm_3YOshverbCbY"
        }
      ],
      "services": {
        "appinvite_service": {
          "other_platform_oauth_client": [
            {
              "client_id": "644983599736-reujtdsm01muvecuan2ophu7dqfc41g0.apps.googleusercontent.com",
              "client_type": 3
            },
            {
              "client_id": "644983599736-q2dhb37oasvmhobti58cbnk66neel1s9.apps.googleusercontent.com",
              "client_type": 2,
              "ios_info": {
                "bundle_id": "com.OneQlikVTSdemo.ionic"
              }
            }
          ]
        }
      }
    },
    {
      "client_info": {
        "mobilesdk_app_id": "1:644983599736:android:5a1d3baa7c65da8d",
        "android_client_info": {
          "package_name": "com.ionic.croyezdemgpsTracker"
        }
      },
      "oauth_client": [
        {
          "client_id": "644983599736-reujtdsm01muvecuan2ophu7dqfc41g0.apps.googleusercontent.com",
          "client_type": 3
        }
      ],
      "api_key": [
        {
          "current_key": "AIzaSyBQHVM3Kv8VwprWxS3RHm_3YOshverbCbY"
        }
      ],
      "services": {
        "appinvite_service": {
          "other_platform_oauth_client": [
            {
              "client_id": "644983599736-reujtdsm01muvecuan2ophu7dqfc41g0.apps.googleusercontent.com",
              "client_type": 3
            },
            {
              "client_id": "644983599736-q2dhb37oasvmhobti58cbnk66neel1s9.apps.googleusercontent.com",
              "client_type": 2,
              "ios_info": {
                "bundle_id": "com.OneQlikVTSdemo.ionic"
              }
            }
          ]
        }
      }
    },
    {
      "client_info": {
        "mobilesdk_app_id": "1:644983599736:android:4ea3d6dde7e2b448",
        "android_client_info": {
          "package_name": "com.ionic.newgen"
        }
      },
      "oauth_client": [
        {
          "client_id": "644983599736-reujtdsm01muvecuan2ophu7dqfc41g0.apps.googleusercontent.com",
          "client_type": 3
        }
      ],
      "api_key": [
        {
          "current_key": "AIzaSyBQHVM3Kv8VwprWxS3RHm_3YOshverbCbY"
        }
      ],
      "services": {
        "appinvite_service": {
          "other_platform_oauth_client": [
            {
              "client_id": "644983599736-reujtdsm01muvecuan2ophu7dqfc41g0.apps.googleusercontent.com",
              "client_type": 3
            },
            {
              "client_id": "644983599736-q2dhb37oasvmhobti58cbnk66neel1s9.apps.googleusercontent.com",
              "client_type": 2,
              "ios_info": {
                "bundle_id": "com.OneQlikVTSdemo.ionic"
              }
            }
          ]
        }
      }
    },
    {
      "client_info": {
        "mobilesdk_app_id": "1:644983599736:android:85b922aeafb94a00",
        "android_client_info": {
          "package_name": "com.ionic.plextrack"
        }
      },
      "oauth_client": [
        {
          "client_id": "644983599736-reujtdsm01muvecuan2ophu7dqfc41g0.apps.googleusercontent.com",
          "client_type": 3
        }
      ],
      "api_key": [
        {
          "current_key": "AIzaSyBQHVM3Kv8VwprWxS3RHm_3YOshverbCbY"
        }
      ],
      "services": {
        "appinvite_service": {
          "other_platform_oauth_client": [
            {
              "client_id": "644983599736-reujtdsm01muvecuan2ophu7dqfc41g0.apps.googleusercontent.com",
              "client_type": 3
            },
            {
              "client_id": "644983599736-q2dhb37oasvmhobti58cbnk66neel1s9.apps.googleusercontent.com",
              "client_type": 2,
              "ios_info": {
                "bundle_id": "com.OneQlikVTSdemo.ionic"
              }
            }
          ]
        }
      }
    },
    {
      "client_info": {
        "mobilesdk_app_id": "1:644983599736:android:e83e2e01d2be6456",
        "android_client_info": {
          "package_name": "com.mdapInnovations.ionic"
        }
      },
      "oauth_client": [
        {
          "client_id": "644983599736-reujtdsm01muvecuan2ophu7dqfc41g0.apps.googleusercontent.com",
          "client_type": 3
        }
      ],
      "api_key": [
        {
          "current_key": "AIzaSyBQHVM3Kv8VwprWxS3RHm_3YOshverbCbY"
        }
      ],
      "services": {
        "appinvite_service": {
          "other_platform_oauth_client": [
            {
              "client_id": "644983599736-reujtdsm01muvecuan2ophu7dqfc41g0.apps.googleusercontent.com",
              "client_type": 3
            },
            {
              "client_id": "644983599736-q2dhb37oasvmhobti58cbnk66neel1s9.apps.googleusercontent.com",
              "client_type": 2,
              "ios_info": {
                "bundle_id": "com.OneQlikVTSdemo.ionic"
              }
            }
          ]
        }
      }
    },
    {
      "client_info": {
        "mobilesdk_app_id": "1:644983599736:android:ff9f3b343ddd827f",
        "android_client_info": {
          "package_name": "com.mstracking.ionic"
        }
      },
      "oauth_client": [
        {
          "client_id": "644983599736-reujtdsm01muvecuan2ophu7dqfc41g0.apps.googleusercontent.com",
          "client_type": 3
        }
      ],
      "api_key": [
        {
          "current_key": "AIzaSyBQHVM3Kv8VwprWxS3RHm_3YOshverbCbY"
        }
      ],
      "services": {
        "appinvite_service": {
          "other_platform_oauth_client": [
            {
              "client_id": "644983599736-reujtdsm01muvecuan2ophu7dqfc41g0.apps.googleusercontent.com",
              "client_type": 3
            },
            {
              "client_id": "644983599736-q2dhb37oasvmhobti58cbnk66neel1s9.apps.googleusercontent.com",
              "client_type": 2,
              "ios_info": {
                "bundle_id": "com.OneQlikVTSdemo.ionic"
              }
            }
          ]
        }
      }
    },
    {
      "client_info": {
        "mobilesdk_app_id": "1:644983599736:android:f182dcfbc7b99e9f",
        "android_client_info": {
          "package_name": "com.mtele.ionic"
        }
      },
      "oauth_client": [
        {
          "client_id": "644983599736-reujtdsm01muvecuan2ophu7dqfc41g0.apps.googleusercontent.com",
          "client_type": 3
        }
      ],
      "api_key": [
        {
          "current_key": "AIzaSyBQHVM3Kv8VwprWxS3RHm_3YOshverbCbY"
        }
      ],
      "services": {
        "appinvite_service": {
          "other_platform_oauth_client": [
            {
              "client_id": "644983599736-reujtdsm01muvecuan2ophu7dqfc41g0.apps.googleusercontent.com",
              "client_type": 3
            },
            {
              "client_id": "644983599736-q2dhb37oasvmhobti58cbnk66neel1s9.apps.googleusercontent.com",
              "client_type": 2,
              "ios_info": {
                "bundle_id": "com.OneQlikVTSdemo.ionic"
              }
            }
          ]
        }
      }
    },
    {
      "client_info": {
        "mobilesdk_app_id": "1:644983599736:android:da43e37323c12903",
        "android_client_info": {
          "package_name": "com.nigranikabibhikahise.ionic"
        }
      },
      "oauth_client": [
        {
          "client_id": "644983599736-reujtdsm01muvecuan2ophu7dqfc41g0.apps.googleusercontent.com",
          "client_type": 3
        }
      ],
      "api_key": [
        {
          "current_key": "AIzaSyBQHVM3Kv8VwprWxS3RHm_3YOshverbCbY"
        }
      ],
      "services": {
        "appinvite_service": {
          "other_platform_oauth_client": [
            {
              "client_id": "644983599736-reujtdsm01muvecuan2ophu7dqfc41g0.apps.googleusercontent.com",
              "client_type": 3
            },
            {
              "client_id": "644983599736-q2dhb37oasvmhobti58cbnk66neel1s9.apps.googleusercontent.com",
              "client_type": 2,
              "ios_info": {
                "bundle_id": "com.OneQlikVTSdemo.ionic"
              }
            }
          ]
        }
      }
    },
    {
      "client_info": {
        "mobilesdk_app_id": "1:644983599736:android:4e8032f7a0628d75",
        "android_client_info": {
          "package_name": "com.oneqlik.vashika"
        }
      },
      "oauth_client": [
        {
          "client_id": "644983599736-reujtdsm01muvecuan2ophu7dqfc41g0.apps.googleusercontent.com",
          "client_type": 3
        }
      ],
      "api_key": [
        {
          "current_key": "AIzaSyBQHVM3Kv8VwprWxS3RHm_3YOshverbCbY"
        }
      ],
      "services": {
        "appinvite_service": {
          "other_platform_oauth_client": [
            {
              "client_id": "644983599736-reujtdsm01muvecuan2ophu7dqfc41g0.apps.googleusercontent.com",
              "client_type": 3
            },
            {
              "client_id": "644983599736-q2dhb37oasvmhobti58cbnk66neel1s9.apps.googleusercontent.com",
              "client_type": 2,
              "ios_info": {
                "bundle_id": "com.OneQlikVTSdemo.ionic"
              }
            }
          ]
        }
      }
    },
    {
      "client_info": {
        "mobilesdk_app_id": "1:644983599736:android:9771521b3da264b6",
        "android_client_info": {
          "package_name": "com.radiantschoolpatna.ionic"
        }
      },
      "oauth_client": [
        {
          "client_id": "644983599736-reujtdsm01muvecuan2ophu7dqfc41g0.apps.googleusercontent.com",
          "client_type": 3
        }
      ],
      "api_key": [
        {
          "current_key": "AIzaSyBQHVM3Kv8VwprWxS3RHm_3YOshverbCbY"
        }
      ],
      "services": {
        "appinvite_service": {
          "other_platform_oauth_client": [
            {
              "client_id": "644983599736-reujtdsm01muvecuan2ophu7dqfc41g0.apps.googleusercontent.com",
              "client_type": 3
            },
            {
              "client_id": "644983599736-q2dhb37oasvmhobti58cbnk66neel1s9.apps.googleusercontent.com",
              "client_type": 2,
              "ios_info": {
                "bundle_id": "com.OneQlikVTSdemo.ionic"
              }
            }
          ]
        }
      }
    },
    {
      "client_info": {
        "mobilesdk_app_id": "1:644983599736:android:bf10e71431c90939",
        "android_client_info": {
          "package_name": "com.rajdhanigps.ionic"
        }
      },
      "oauth_client": [
        {
          "client_id": "644983599736-reujtdsm01muvecuan2ophu7dqfc41g0.apps.googleusercontent.com",
          "client_type": 3
        }
      ],
      "api_key": [
        {
          "current_key": "AIzaSyBQHVM3Kv8VwprWxS3RHm_3YOshverbCbY"
        }
      ],
      "services": {
        "appinvite_service": {
          "other_platform_oauth_client": [
            {
              "client_id": "644983599736-reujtdsm01muvecuan2ophu7dqfc41g0.apps.googleusercontent.com",
              "client_type": 3
            },
            {
              "client_id": "644983599736-q2dhb37oasvmhobti58cbnk66neel1s9.apps.googleusercontent.com",
              "client_type": 2,
              "ios_info": {
                "bundle_id": "com.OneQlikVTSdemo.ionic"
              }
            }
          ]
        }
      }
    },
    {
      "client_info": {
        "mobilesdk_app_id": "1:644983599736:android:3ccfe376698a564d",
        "android_client_info": {
          "package_name": "com.rajeshauto.ionic"
        }
      },
      "oauth_client": [
        {
          "client_id": "644983599736-reujtdsm01muvecuan2ophu7dqfc41g0.apps.googleusercontent.com",
          "client_type": 3
        }
      ],
      "api_key": [
        {
          "current_key": "AIzaSyBQHVM3Kv8VwprWxS3RHm_3YOshverbCbY"
        }
      ],
      "services": {
        "appinvite_service": {
          "other_platform_oauth_client": [
            {
              "client_id": "644983599736-reujtdsm01muvecuan2ophu7dqfc41g0.apps.googleusercontent.com",
              "client_type": 3
            },
            {
              "client_id": "644983599736-q2dhb37oasvmhobti58cbnk66neel1s9.apps.googleusercontent.com",
              "client_type": 2,
              "ios_info": {
                "bundle_id": "com.OneQlikVTSdemo.ionic"
              }
            }
          ]
        }
      }
    },
    {
      "client_info": {
        "mobilesdk_app_id": "1:644983599736:android:688193b92b5968fb",
        "android_client_info": {
          "package_name": "com.rakhavehicle.ionic"
        }
      },
      "oauth_client": [
        {
          "client_id": "644983599736-reujtdsm01muvecuan2ophu7dqfc41g0.apps.googleusercontent.com",
          "client_type": 3
        }
      ],
      "api_key": [
        {
          "current_key": "AIzaSyBQHVM3Kv8VwprWxS3RHm_3YOshverbCbY"
        }
      ],
      "services": {
        "appinvite_service": {
          "other_platform_oauth_client": [
            {
              "client_id": "644983599736-reujtdsm01muvecuan2ophu7dqfc41g0.apps.googleusercontent.com",
              "client_type": 3
            },
            {
              "client_id": "644983599736-q2dhb37oasvmhobti58cbnk66neel1s9.apps.googleusercontent.com",
              "client_type": 2,
              "ios_info": {
                "bundle_id": "com.OneQlikVTSdemo.ionic"
              }
            }
          ]
        }
      }
    },
    {
      "client_info": {
        "mobilesdk_app_id": "1:644983599736:android:d0a4ff91abe358c3",
        "android_client_info": {
          "package_name": "com.roadpin.ionic"
        }
      },
      "oauth_client": [
        {
          "client_id": "644983599736-reujtdsm01muvecuan2ophu7dqfc41g0.apps.googleusercontent.com",
          "client_type": 3
        }
      ],
      "api_key": [
        {
          "current_key": "AIzaSyBQHVM3Kv8VwprWxS3RHm_3YOshverbCbY"
        }
      ],
      "services": {
        "appinvite_service": {
          "other_platform_oauth_client": [
            {
              "client_id": "644983599736-reujtdsm01muvecuan2ophu7dqfc41g0.apps.googleusercontent.com",
              "client_type": 3
            },
            {
              "client_id": "644983599736-q2dhb37oasvmhobti58cbnk66neel1s9.apps.googleusercontent.com",
              "client_type": 2,
              "ios_info": {
                "bundle_id": "com.OneQlikVTSdemo.ionic"
              }
            }
          ]
        }
      }
    },
    {
      "client_info": {
        "mobilesdk_app_id": "1:644983599736:android:2e15cd35790e9044",
        "android_client_info": {
          "package_name": "com.roadwaygps.ionic"
        }
      },
      "oauth_client": [
        {
          "client_id": "644983599736-reujtdsm01muvecuan2ophu7dqfc41g0.apps.googleusercontent.com",
          "client_type": 3
        }
      ],
      "api_key": [
        {
          "current_key": "AIzaSyBQHVM3Kv8VwprWxS3RHm_3YOshverbCbY"
        }
      ],
      "services": {
        "appinvite_service": {
          "other_platform_oauth_client": [
            {
              "client_id": "644983599736-reujtdsm01muvecuan2ophu7dqfc41g0.apps.googleusercontent.com",
              "client_type": 3
            },
            {
              "client_id": "644983599736-q2dhb37oasvmhobti58cbnk66neel1s9.apps.googleusercontent.com",
              "client_type": 2,
              "ios_info": {
                "bundle_id": "com.OneQlikVTSdemo.ionic"
              }
            }
          ]
        }
      }
    },
    {
      "client_info": {
        "mobilesdk_app_id": "1:644983599736:android:e9f4701cb7933ffb",
        "android_client_info": {
          "package_name": "com.roottrace.ionic"
        }
      },
      "oauth_client": [
        {
          "client_id": "644983599736-reujtdsm01muvecuan2ophu7dqfc41g0.apps.googleusercontent.com",
          "client_type": 3
        }
      ],
      "api_key": [
        {
          "current_key": "AIzaSyBQHVM3Kv8VwprWxS3RHm_3YOshverbCbY"
        }
      ],
      "services": {
        "appinvite_service": {
          "other_platform_oauth_client": [
            {
              "client_id": "644983599736-reujtdsm01muvecuan2ophu7dqfc41g0.apps.googleusercontent.com",
              "client_type": 3
            },
            {
              "client_id": "644983599736-q2dhb37oasvmhobti58cbnk66neel1s9.apps.googleusercontent.com",
              "client_type": 2,
              "ios_info": {
                "bundle_id": "com.OneQlikVTSdemo.ionic"
              }
            }
          ]
        }
      }
    },
    {
      "client_info": {
        "mobilesdk_app_id": "1:644983599736:android:985bafd2d26c0942ae738d",
        "android_client_info": {
          "package_name": "com.roottracenew.ionic"
        }
      },
      "oauth_client": [
        {
          "client_id": "644983599736-reujtdsm01muvecuan2ophu7dqfc41g0.apps.googleusercontent.com",
          "client_type": 3
        }
      ],
      "api_key": [
        {
          "current_key": "AIzaSyBQHVM3Kv8VwprWxS3RHm_3YOshverbCbY"
        }
      ],
      "services": {
        "appinvite_service": {
          "other_platform_oauth_client": [
            {
              "client_id": "644983599736-reujtdsm01muvecuan2ophu7dqfc41g0.apps.googleusercontent.com",
              "client_type": 3
            },
            {
              "client_id": "644983599736-q2dhb37oasvmhobti58cbnk66neel1s9.apps.googleusercontent.com",
              "client_type": 2,
              "ios_info": {
                "bundle_id": "com.OneQlikVTSdemo.ionic"
              }
            }
          ]
        }
      }
    },
    {
      "client_info": {
        "mobilesdk_app_id": "1:644983599736:android:99927c9548218fa9",
        "android_client_info": {
          "package_name": "com.safety.ionic"
        }
      },
      "oauth_client": [
        {
          "client_id": "644983599736-reujtdsm01muvecuan2ophu7dqfc41g0.apps.googleusercontent.com",
          "client_type": 3
        }
      ],
      "api_key": [
        {
          "current_key": "AIzaSyBQHVM3Kv8VwprWxS3RHm_3YOshverbCbY"
        }
      ],
      "services": {
        "appinvite_service": {
          "other_platform_oauth_client": [
            {
              "client_id": "644983599736-reujtdsm01muvecuan2ophu7dqfc41g0.apps.googleusercontent.com",
              "client_type": 3
            },
            {
              "client_id": "644983599736-q2dhb37oasvmhobti58cbnk66neel1s9.apps.googleusercontent.com",
              "client_type": 2,
              "ios_info": {
                "bundle_id": "com.OneQlikVTSdemo.ionic"
              }
            }
          ]
        }
      }
    },
    {
      "client_info": {
        "mobilesdk_app_id": "1:644983599736:android:3d09f416e92cb6e2",
        "android_client_info": {
          "package_name": "com.safety365Admin.ionic"
        }
      },
      "oauth_client": [
        {
          "client_id": "644983599736-reujtdsm01muvecuan2ophu7dqfc41g0.apps.googleusercontent.com",
          "client_type": 3
        }
      ],
      "api_key": [
        {
          "current_key": "AIzaSyBQHVM3Kv8VwprWxS3RHm_3YOshverbCbY"
        }
      ],
      "services": {
        "appinvite_service": {
          "other_platform_oauth_client": [
            {
              "client_id": "644983599736-reujtdsm01muvecuan2ophu7dqfc41g0.apps.googleusercontent.com",
              "client_type": 3
            },
            {
              "client_id": "644983599736-q2dhb37oasvmhobti58cbnk66neel1s9.apps.googleusercontent.com",
              "client_type": 2,
              "ios_info": {
                "bundle_id": "com.OneQlikVTSdemo.ionic"
              }
            }
          ]
        }
      }
    },
    {
      "client_info": {
        "mobilesdk_app_id": "1:644983599736:android:746ae6f6c89a44db",
        "android_client_info": {
          "package_name": "com.sanskarvts.ionic"
        }
      },
      "oauth_client": [
        {
          "client_id": "644983599736-reujtdsm01muvecuan2ophu7dqfc41g0.apps.googleusercontent.com",
          "client_type": 3
        }
      ],
      "api_key": [
        {
          "current_key": "AIzaSyBQHVM3Kv8VwprWxS3RHm_3YOshverbCbY"
        }
      ],
      "services": {
        "appinvite_service": {
          "other_platform_oauth_client": [
            {
              "client_id": "644983599736-reujtdsm01muvecuan2ophu7dqfc41g0.apps.googleusercontent.com",
              "client_type": 3
            },
            {
              "client_id": "644983599736-q2dhb37oasvmhobti58cbnk66neel1s9.apps.googleusercontent.com",
              "client_type": 2,
              "ios_info": {
                "bundle_id": "com.OneQlikVTSdemo.ionic"
              }
            }
          ]
        }
      }
    },
    {
      "client_info": {
        "mobilesdk_app_id": "1:644983599736:android:c141d05f8a657377",
        "android_client_info": {
          "package_name": "com.simplitrack.ionic"
        }
      },
      "oauth_client": [
        {
          "client_id": "644983599736-reujtdsm01muvecuan2ophu7dqfc41g0.apps.googleusercontent.com",
          "client_type": 3
        }
      ],
      "api_key": [
        {
          "current_key": "AIzaSyBQHVM3Kv8VwprWxS3RHm_3YOshverbCbY"
        }
      ],
      "services": {
        "appinvite_service": {
          "other_platform_oauth_client": [
            {
              "client_id": "644983599736-reujtdsm01muvecuan2ophu7dqfc41g0.apps.googleusercontent.com",
              "client_type": 3
            },
            {
              "client_id": "644983599736-q2dhb37oasvmhobti58cbnk66neel1s9.apps.googleusercontent.com",
              "client_type": 2,
              "ios_info": {
                "bundle_id": "com.OneQlikVTSdemo.ionic"
              }
            }
          ]
        }
      }
    },
    {
      "client_info": {
        "mobilesdk_app_id": "1:644983599736:android:78e4fce1b5830d65",
        "android_client_info": {
          "package_name": "com.skystargps.ionic"
        }
      },
      "oauth_client": [
        {
          "client_id": "644983599736-reujtdsm01muvecuan2ophu7dqfc41g0.apps.googleusercontent.com",
          "client_type": 3
        }
      ],
      "api_key": [
        {
          "current_key": "AIzaSyBQHVM3Kv8VwprWxS3RHm_3YOshverbCbY"
        }
      ],
      "services": {
        "appinvite_service": {
          "other_platform_oauth_client": [
            {
              "client_id": "644983599736-reujtdsm01muvecuan2ophu7dqfc41g0.apps.googleusercontent.com",
              "client_type": 3
            },
            {
              "client_id": "644983599736-q2dhb37oasvmhobti58cbnk66neel1s9.apps.googleusercontent.com",
              "client_type": 2,
              "ios_info": {
                "bundle_id": "com.OneQlikVTSdemo.ionic"
              }
            }
          ]
        }
      }
    },
    {
      "client_info": {
        "mobilesdk_app_id": "1:644983599736:android:8a9812d810e9a201",
        "android_client_info": {
          "package_name": "com.skystargps1.ionic"
        }
      },
      "oauth_client": [
        {
          "client_id": "644983599736-reujtdsm01muvecuan2ophu7dqfc41g0.apps.googleusercontent.com",
          "client_type": 3
        }
      ],
      "api_key": [
        {
          "current_key": "AIzaSyBQHVM3Kv8VwprWxS3RHm_3YOshverbCbY"
        }
      ],
      "services": {
        "appinvite_service": {
          "other_platform_oauth_client": [
            {
              "client_id": "644983599736-reujtdsm01muvecuan2ophu7dqfc41g0.apps.googleusercontent.com",
              "client_type": 3
            },
            {
              "client_id": "644983599736-q2dhb37oasvmhobti58cbnk66neel1s9.apps.googleusercontent.com",
              "client_type": 2,
              "ios_info": {
                "bundle_id": "com.OneQlikVTSdemo.ionic"
              }
            }
          ]
        }
      }
    },
    {
      "client_info": {
        "mobilesdk_app_id": "1:644983599736:android:329856b4aab78ec8ae738d",
        "android_client_info": {
          "package_name": "com.smarttrack.ionic"
        }
      },
      "oauth_client": [
        {
          "client_id": "644983599736-reujtdsm01muvecuan2ophu7dqfc41g0.apps.googleusercontent.com",
          "client_type": 3
        }
      ],
      "api_key": [
        {
          "current_key": "AIzaSyBQHVM3Kv8VwprWxS3RHm_3YOshverbCbY"
        }
      ],
      "services": {
        "appinvite_service": {
          "other_platform_oauth_client": [
            {
              "client_id": "644983599736-reujtdsm01muvecuan2ophu7dqfc41g0.apps.googleusercontent.com",
              "client_type": 3
            },
            {
              "client_id": "644983599736-q2dhb37oasvmhobti58cbnk66neel1s9.apps.googleusercontent.com",
              "client_type": 2,
              "ios_info": {
                "bundle_id": "com.OneQlikVTSdemo.ionic"
              }
            }
          ]
        }
      }
    },
    {
      "client_info": {
        "mobilesdk_app_id": "1:644983599736:android:0586692de534d3e8",
        "android_client_info": {
          "package_name": "com.spygps.ionic"
        }
      },
      "oauth_client": [
        {
          "client_id": "644983599736-reujtdsm01muvecuan2ophu7dqfc41g0.apps.googleusercontent.com",
          "client_type": 3
        }
      ],
      "api_key": [
        {
          "current_key": "AIzaSyBQHVM3Kv8VwprWxS3RHm_3YOshverbCbY"
        }
      ],
      "services": {
        "appinvite_service": {
          "other_platform_oauth_client": [
            {
              "client_id": "644983599736-reujtdsm01muvecuan2ophu7dqfc41g0.apps.googleusercontent.com",
              "client_type": 3
            },
            {
              "client_id": "644983599736-q2dhb37oasvmhobti58cbnk66neel1s9.apps.googleusercontent.com",
              "client_type": 2,
              "ios_info": {
                "bundle_id": "com.OneQlikVTSdemo.ionic"
              }
            }
          ]
        }
      }
    },
    {
      "client_info": {
        "mobilesdk_app_id": "1:644983599736:android:95943c4fb69a1a7dae738d",
        "android_client_info": {
          "package_name": "com.swiftgps.ionic"
        }
      },
      "oauth_client": [
        {
          "client_id": "644983599736-reujtdsm01muvecuan2ophu7dqfc41g0.apps.googleusercontent.com",
          "client_type": 3
        }
      ],
      "api_key": [
        {
          "current_key": "AIzaSyBQHVM3Kv8VwprWxS3RHm_3YOshverbCbY"
        }
      ],
      "services": {
        "appinvite_service": {
          "other_platform_oauth_client": [
            {
              "client_id": "644983599736-reujtdsm01muvecuan2ophu7dqfc41g0.apps.googleusercontent.com",
              "client_type": 3
            },
            {
              "client_id": "644983599736-q2dhb37oasvmhobti58cbnk66neel1s9.apps.googleusercontent.com",
              "client_type": 2,
              "ios_info": {
                "bundle_id": "com.OneQlikVTSdemo.ionic"
              }
            }
          ]
        }
      }
    },
    {
      "client_info": {
        "mobilesdk_app_id": "1:644983599736:android:2c3bce45b82d3154",
        "android_client_info": {
          "package_name": "com.trackTive.ionic"
        }
      },
      "oauth_client": [
        {
          "client_id": "644983599736-reujtdsm01muvecuan2ophu7dqfc41g0.apps.googleusercontent.com",
          "client_type": 3
        }
      ],
      "api_key": [
        {
          "current_key": "AIzaSyBQHVM3Kv8VwprWxS3RHm_3YOshverbCbY"
        }
      ],
      "services": {
        "appinvite_service": {
          "other_platform_oauth_client": [
            {
              "client_id": "644983599736-reujtdsm01muvecuan2ophu7dqfc41g0.apps.googleusercontent.com",
              "client_type": 3
            },
            {
              "client_id": "644983599736-q2dhb37oasvmhobti58cbnk66neel1s9.apps.googleusercontent.com",
              "client_type": 2,
              "ios_info": {
                "bundle_id": "com.OneQlikVTSdemo.ionic"
              }
            }
          ]
        }
      }
    },
    {
      "client_info": {
        "mobilesdk_app_id": "1:644983599736:android:9de008a035c3f52d",
        "android_client_info": {
          "package_name": "com.uniqueEye.ionic"
        }
      },
      "oauth_client": [
        {
          "client_id": "644983599736-reujtdsm01muvecuan2ophu7dqfc41g0.apps.googleusercontent.com",
          "client_type": 3
        }
      ],
      "api_key": [
        {
          "current_key": "AIzaSyBQHVM3Kv8VwprWxS3RHm_3YOshverbCbY"
        }
      ],
      "services": {
        "appinvite_service": {
          "other_platform_oauth_client": [
            {
              "client_id": "644983599736-reujtdsm01muvecuan2ophu7dqfc41g0.apps.googleusercontent.com",
              "client_type": 3
            },
            {
              "client_id": "644983599736-q2dhb37oasvmhobti58cbnk66neel1s9.apps.googleusercontent.com",
              "client_type": 2,
              "ios_info": {
                "bundle_id": "com.OneQlikVTSdemo.ionic"
              }
            }
          ]
        }
      }
    },
    {
      "client_info": {
        "mobilesdk_app_id": "1:644983599736:android:c51053f2d95cbce3",
        "android_client_info": {
          "package_name": "com.upplex.trackup"
        }
      },
      "oauth_client": [
        {
          "client_id": "644983599736-reujtdsm01muvecuan2ophu7dqfc41g0.apps.googleusercontent.com",
          "client_type": 3
        }
      ],
      "api_key": [
        {
          "current_key": "AIzaSyBQHVM3Kv8VwprWxS3RHm_3YOshverbCbY"
        }
      ],
      "services": {
        "appinvite_service": {
          "other_platform_oauth_client": [
            {
              "client_id": "644983599736-reujtdsm01muvecuan2ophu7dqfc41g0.apps.googleusercontent.com",
              "client_type": 3
            },
            {
              "client_id": "644983599736-q2dhb37oasvmhobti58cbnk66neel1s9.apps.googleusercontent.com",
              "client_type": 2,
              "ios_info": {
                "bundle_id": "com.OneQlikVTSdemo.ionic"
              }
            }
          ]
        }
      }
    },
    {
      "client_info": {
        "mobilesdk_app_id": "1:644983599736:android:dcaf7626e43155b0",
        "android_client_info": {
          "package_name": "com.vrgps.ionic"
        }
      },
      "oauth_client": [
        {
          "client_id": "644983599736-reujtdsm01muvecuan2ophu7dqfc41g0.apps.googleusercontent.com",
          "client_type": 3
        }
      ],
      "api_key": [
        {
          "current_key": "AIzaSyBQHVM3Kv8VwprWxS3RHm_3YOshverbCbY"
        }
      ],
      "services": {
        "appinvite_service": {
          "other_platform_oauth_client": [
            {
              "client_id": "644983599736-reujtdsm01muvecuan2ophu7dqfc41g0.apps.googleusercontent.com",
              "client_type": 3
            },
            {
              "client_id": "644983599736-q2dhb37oasvmhobti58cbnk66neel1s9.apps.googleusercontent.com",
              "client_type": 2,
              "ios_info": {
                "bundle_id": "com.OneQlikVTSdemo.ionic"
              }
            }
          ]
        }
      }
    },
    {
      "client_info": {
        "mobilesdk_app_id": "1:644983599736:android:938b50774556ed51",
        "android_client_info": {
          "package_name": "com.yogitaGPStech.ionic"
        }
      },
      "oauth_client": [
        {
          "client_id": "644983599736-reujtdsm01muvecuan2ophu7dqfc41g0.apps.googleusercontent.com",
          "client_type": 3
        }
      ],
      "api_key": [
        {
          "current_key": "AIzaSyBQHVM3Kv8VwprWxS3RHm_3YOshverbCbY"
        }
      ],
      "services": {
        "appinvite_service": {
          "other_platform_oauth_client": [
            {
              "client_id": "644983599736-reujtdsm01muvecuan2ophu7dqfc41g0.apps.googleusercontent.com",
              "client_type": 3
            },
            {
              "client_id": "644983599736-q2dhb37oasvmhobti58cbnk66neel1s9.apps.googleusercontent.com",
              "client_type": 2,
              "ios_info": {
                "bundle_id": "com.OneQlikVTSdemo.ionic"
              }
            }
          ]
        }
      }
    },
    {
      "client_info": {
        "mobilesdk_app_id": "1:644983599736:android:c84c6e664417c1c0",
        "android_client_info": {
          "package_name": "com.zettrackindia.ionic"
        }
      },
      "oauth_client": [
        {
          "client_id": "644983599736-reujtdsm01muvecuan2ophu7dqfc41g0.apps.googleusercontent.com",
          "client_type": 3
        }
      ],
      "api_key": [
        {
          "current_key": "AIzaSyBQHVM3Kv8VwprWxS3RHm_3YOshverbCbY"
        }
      ],
      "services": {
        "appinvite_service": {
          "other_platform_oauth_client": [
            {
              "client_id": "644983599736-reujtdsm01muvecuan2ophu7dqfc41g0.apps.googleusercontent.com",
              "client_type": 3
            },
            {
              "client_id": "644983599736-q2dhb37oasvmhobti58cbnk66neel1s9.apps.googleusercontent.com",
              "client_type": 2,
              "ios_info": {
                "bundle_id": "com.OneQlikVTSdemo.ionic"
              }
            }
          ]
        }
      }
    },
    {
      "client_info": {
        "mobilesdk_app_id": "1:644983599736:android:6ab79c426c93a2fe",
        "android_client_info": {
          "package_name": "io.Sohamshakti.starter"
        }
      },
      "oauth_client": [
        {
          "client_id": "644983599736-reujtdsm01muvecuan2ophu7dqfc41g0.apps.googleusercontent.com",
          "client_type": 3
        }
      ],
      "api_key": [
        {
          "current_key": "AIzaSyBQHVM3Kv8VwprWxS3RHm_3YOshverbCbY"
        }
      ],
      "services": {
        "appinvite_service": {
          "other_platform_oauth_client": [
            {
              "client_id": "644983599736-reujtdsm01muvecuan2ophu7dqfc41g0.apps.googleusercontent.com",
              "client_type": 3
            },
            {
              "client_id": "644983599736-q2dhb37oasvmhobti58cbnk66neel1s9.apps.googleusercontent.com",
              "client_type": 2,
              "ios_info": {
                "bundle_id": "com.OneQlikVTSdemo.ionic"
              }
            }
          ]
        }
      }
    },
    {
      "client_info": {
        "mobilesdk_app_id": "1:644983599736:android:9ae0c996a6593e67ae738d",
        "android_client_info": {
          "package_name": "io.cebsparents.ionic"
        }
      },
      "oauth_client": [
        {
          "client_id": "644983599736-reujtdsm01muvecuan2ophu7dqfc41g0.apps.googleusercontent.com",
          "client_type": 3
        }
      ],
      "api_key": [
        {
          "current_key": "AIzaSyBQHVM3Kv8VwprWxS3RHm_3YOshverbCbY"
        }
      ],
      "services": {
        "appinvite_service": {
          "other_platform_oauth_client": [
            {
              "client_id": "644983599736-reujtdsm01muvecuan2ophu7dqfc41g0.apps.googleusercontent.com",
              "client_type": 3
            },
            {
              "client_id": "644983599736-q2dhb37oasvmhobti58cbnk66neel1s9.apps.googleusercontent.com",
              "client_type": 2,
              "ios_info": {
                "bundle_id": "com.OneQlikVTSdemo.ionic"
              }
            }
          ]
        }
      }
    },
    {
      "client_info": {
        "mobilesdk_app_id": "1:644983599736:android:5b345c126ba57d10",
        "android_client_info": {
          "package_name": "io.ionic.Safety365"
        }
      },
      "oauth_client": [
        {
          "client_id": "644983599736-reujtdsm01muvecuan2ophu7dqfc41g0.apps.googleusercontent.com",
          "client_type": 3
        }
      ],
      "api_key": [
        {
          "current_key": "AIzaSyBQHVM3Kv8VwprWxS3RHm_3YOshverbCbY"
        }
      ],
      "services": {
        "appinvite_service": {
          "other_platform_oauth_client": [
            {
              "client_id": "644983599736-reujtdsm01muvecuan2ophu7dqfc41g0.apps.googleusercontent.com",
              "client_type": 3
            },
            {
              "client_id": "644983599736-q2dhb37oasvmhobti58cbnk66neel1s9.apps.googleusercontent.com",
              "client_type": 2,
              "ios_info": {
                "bundle_id": "com.OneQlikVTSdemo.ionic"
              }
            }
          ]
        }
      }
    },
    {
      "client_info": {
        "mobilesdk_app_id": "1:644983599736:android:d4f1e436dfc616a6",
        "android_client_info": {
          "package_name": "io.ionic.oneQlickGpsParents"
        }
      },
      "oauth_client": [
        {
          "client_id": "644983599736-reujtdsm01muvecuan2ophu7dqfc41g0.apps.googleusercontent.com",
          "client_type": 3
        }
      ],
      "api_key": [
        {
          "current_key": "AIzaSyBQHVM3Kv8VwprWxS3RHm_3YOshverbCbY"
        }
      ],
      "services": {
        "appinvite_service": {
          "other_platform_oauth_client": [
            {
              "client_id": "644983599736-reujtdsm01muvecuan2ophu7dqfc41g0.apps.googleusercontent.com",
              "client_type": 3
            },
            {
              "client_id": "644983599736-q2dhb37oasvmhobti58cbnk66neel1s9.apps.googleusercontent.com",
              "client_type": 2,
              "ios_info": {
                "bundle_id": "com.OneQlikVTSdemo.ionic"
              }
            }
          ]
        }
      }
    },
    {
      "client_info": {
        "mobilesdk_app_id": "1:644983599736:android:e46842e8e40c4ee9",
        "android_client_info": {
          "package_name": "io.ionic.oneQlickGpsParentsSchool"
        }
      },
      "oauth_client": [
        {
          "client_id": "644983599736-reujtdsm01muvecuan2ophu7dqfc41g0.apps.googleusercontent.com",
          "client_type": 3
        }
      ],
      "api_key": [
        {
          "current_key": "AIzaSyBQHVM3Kv8VwprWxS3RHm_3YOshverbCbY"
        }
      ],
      "services": {
        "appinvite_service": {
          "other_platform_oauth_client": [
            {
              "client_id": "644983599736-reujtdsm01muvecuan2ophu7dqfc41g0.apps.googleusercontent.com",
              "client_type": 3
            },
            {
              "client_id": "644983599736-q2dhb37oasvmhobti58cbnk66neel1s9.apps.googleusercontent.com",
              "client_type": 2,
              "ios_info": {
                "bundle_id": "com.OneQlikVTSdemo.ionic"
              }
            }
          ]
        }
      }
    },
    {
      "client_info": {
        "mobilesdk_app_id": "1:644983599736:android:bca1b73daefcd874",
        "android_client_info": {
          "package_name": "io.ionic.oneqlikRoster"
        }
      },
      "oauth_client": [
        {
          "client_id": "644983599736-reujtdsm01muvecuan2ophu7dqfc41g0.apps.googleusercontent.com",
          "client_type": 3
        }
      ],
      "api_key": [
        {
          "current_key": "AIzaSyBQHVM3Kv8VwprWxS3RHm_3YOshverbCbY"
        }
      ],
      "services": {
        "appinvite_service": {
          "other_platform_oauth_client": [
            {
              "client_id": "644983599736-reujtdsm01muvecuan2ophu7dqfc41g0.apps.googleusercontent.com",
              "client_type": 3
            },
            {
              "client_id": "644983599736-q2dhb37oasvmhobti58cbnk66neel1s9.apps.googleusercontent.com",
              "client_type": 2,
              "ios_info": {
                "bundle_id": "com.OneQlikVTSdemo.ionic"
              }
            }
          ]
        }
      }
    },
    {
      "client_info": {
        "mobilesdk_app_id": "1:644983599736:android:847d71df5410a24a",
        "android_client_info": {
          "package_name": "io.ionic.personalTrack"
        }
      },
      "oauth_client": [
        {
          "client_id": "644983599736-reujtdsm01muvecuan2ophu7dqfc41g0.apps.googleusercontent.com",
          "client_type": 3
        }
      ],
      "api_key": [
        {
          "current_key": "AIzaSyBQHVM3Kv8VwprWxS3RHm_3YOshverbCbY"
        }
      ],
      "services": {
        "appinvite_service": {
          "other_platform_oauth_client": [
            {
              "client_id": "644983599736-reujtdsm01muvecuan2ophu7dqfc41g0.apps.googleusercontent.com",
              "client_type": 3
            },
            {
              "client_id": "644983599736-q2dhb37oasvmhobti58cbnk66neel1s9.apps.googleusercontent.com",
              "client_type": 2,
              "ios_info": {
                "bundle_id": "com.OneQlikVTSdemo.ionic"
              }
            }
          ]
        }
      }
    },
    {
      "client_info": {
        "mobilesdk_app_id": "1:644983599736:android:764d2cb7da3280eb",
        "android_client_info": {
          "package_name": "io.ionic.starter"
        }
      },
      "oauth_client": [
        {
          "client_id": "644983599736-reujtdsm01muvecuan2ophu7dqfc41g0.apps.googleusercontent.com",
          "client_type": 3
        }
      ],
      "api_key": [
        {
          "current_key": "AIzaSyBQHVM3Kv8VwprWxS3RHm_3YOshverbCbY"
        }
      ],
      "services": {
        "appinvite_service": {
          "other_platform_oauth_client": [
            {
              "client_id": "644983599736-reujtdsm01muvecuan2ophu7dqfc41g0.apps.googleusercontent.com",
              "client_type": 3
            },
            {
              "client_id": "644983599736-q2dhb37oasvmhobti58cbnk66neel1s9.apps.googleusercontent.com",
              "client_type": 2,
              "ios_info": {
                "bundle_id": "com.OneQlikVTSdemo.ionic"
              }
            }
          ]
        }
      }
    },
    {
      "client_info": {
        "mobilesdk_app_id": "1:644983599736:android:c9ebc0d530ceebf2",
        "android_client_info": {
          "package_name": "io.ionic.vconnect"
        }
      },
      "oauth_client": [
        {
          "client_id": "644983599736-reujtdsm01muvecuan2ophu7dqfc41g0.apps.googleusercontent.com",
          "client_type": 3
        }
      ],
      "api_key": [
        {
          "current_key": "AIzaSyBQHVM3Kv8VwprWxS3RHm_3YOshverbCbY"
        }
      ],
      "services": {
        "appinvite_service": {
          "other_platform_oauth_client": [
            {
              "client_id": "644983599736-reujtdsm01muvecuan2ophu7dqfc41g0.apps.googleusercontent.com",
              "client_type": 3
            },
            {
              "client_id": "644983599736-q2dhb37oasvmhobti58cbnk66neel1s9.apps.googleusercontent.com",
              "client_type": 2,
              "ios_info": {
                "bundle_id": "com.OneQlikVTSdemo.ionic"
              }
            }
          ]
        }
      }
    },
    {
      "client_info": {
        "mobilesdk_app_id": "1:644983599736:android:dbb865e42cb5f5e2",
        "android_client_info": {
          "package_name": "io.ionic.vehtraparrents"
        }
      },
      "oauth_client": [
        {
          "client_id": "644983599736-reujtdsm01muvecuan2ophu7dqfc41g0.apps.googleusercontent.com",
          "client_type": 3
        }
      ],
      "api_key": [
        {
          "current_key": "AIzaSyBQHVM3Kv8VwprWxS3RHm_3YOshverbCbY"
        }
      ],
      "services": {
        "appinvite_service": {
          "other_platform_oauth_client": [
            {
              "client_id": "644983599736-reujtdsm01muvecuan2ophu7dqfc41g0.apps.googleusercontent.com",
              "client_type": 3
            },
            {
              "client_id": "644983599736-q2dhb37oasvmhobti58cbnk66neel1s9.apps.googleusercontent.com",
              "client_type": 2,
              "ios_info": {
                "bundle_id": "com.OneQlikVTSdemo.ionic"
              }
            }
          ]
        }
      }
    },
    {
      "client_info": {
        "mobilesdk_app_id": "1:644983599736:android:6c25e53c1610a55e",
        "android_client_info": {
          "package_name": "ioGHPTrack.ionic.starter"
        }
      },
      "oauth_client": [
        {
          "client_id": "644983599736-reujtdsm01muvecuan2ophu7dqfc41g0.apps.googleusercontent.com",
          "client_type": 3
        }
      ],
      "api_key": [
        {
          "current_key": "AIzaSyBQHVM3Kv8VwprWxS3RHm_3YOshverbCbY"
        }
      ],
      "services": {
        "appinvite_service": {
          "other_platform_oauth_client": [
            {
              "client_id": "644983599736-reujtdsm01muvecuan2ophu7dqfc41g0.apps.googleusercontent.com",
              "client_type": 3
            },
            {
              "client_id": "644983599736-q2dhb37oasvmhobti58cbnk66neel1s9.apps.googleusercontent.com",
              "client_type": 2,
              "ios_info": {
                "bundle_id": "com.OneQlikVTSdemo.ionic"
              }
            }
          ]
        }
      }
    },
    {
      "client_info": {
        "mobilesdk_app_id": "1:644983599736:android:8b09b8c5a79ceb89",
        "android_client_info": {
          "package_name": "ioGlobalGPSTrack.ionic.starter"
        }
      },
      "oauth_client": [
        {
          "client_id": "644983599736-reujtdsm01muvecuan2ophu7dqfc41g0.apps.googleusercontent.com",
          "client_type": 3
        }
      ],
      "api_key": [
        {
          "current_key": "AIzaSyBQHVM3Kv8VwprWxS3RHm_3YOshverbCbY"
        }
      ],
      "services": {
        "appinvite_service": {
          "other_platform_oauth_client": [
            {
              "client_id": "644983599736-reujtdsm01muvecuan2ophu7dqfc41g0.apps.googleusercontent.com",
              "client_type": 3
            },
            {
              "client_id": "644983599736-q2dhb37oasvmhobti58cbnk66neel1s9.apps.googleusercontent.com",
              "client_type": 2,
              "ios_info": {
                "bundle_id": "com.OneQlikVTSdemo.ionic"
              }
            }
          ]
        }
      }
    },
    {
      "client_info": {
        "mobilesdk_app_id": "1:644983599736:android:7db18263ec0cc856",
        "android_client_info": {
          "package_name": "irdTrack.ionic.lab"
        }
      },
      "oauth_client": [
        {
          "client_id": "644983599736-reujtdsm01muvecuan2ophu7dqfc41g0.apps.googleusercontent.com",
          "client_type": 3
        }
      ],
      "api_key": [
        {
          "current_key": "AIzaSyBQHVM3Kv8VwprWxS3RHm_3YOshverbCbY"
        }
      ],
      "services": {
        "appinvite_service": {
          "other_platform_oauth_client": [
            {
              "client_id": "644983599736-reujtdsm01muvecuan2ophu7dqfc41g0.apps.googleusercontent.com",
              "client_type": 3
            },
            {
              "client_id": "644983599736-q2dhb37oasvmhobti58cbnk66neel1s9.apps.googleusercontent.com",
              "client_type": 2,
              "ios_info": {
                "bundle_id": "com.OneQlikVTSdemo.ionic"
              }
            }
          ]
        }
      }
    },
    {
      "client_info": {
        "mobilesdk_app_id": "1:644983599736:android:c86884bca1ac2203",
        "android_client_info": {
          "package_name": "vtrack.ionic.starter"
        }
      },
      "oauth_client": [
        {
          "client_id": "644983599736-reujtdsm01muvecuan2ophu7dqfc41g0.apps.googleusercontent.com",
          "client_type": 3
        }
      ],
      "api_key": [
        {
          "current_key": "AIzaSyBQHVM3Kv8VwprWxS3RHm_3YOshverbCbY"
        }
      ],
      "services": {
        "appinvite_service": {
          "other_platform_oauth_client": [
            {
              "client_id": "644983599736-reujtdsm01muvecuan2ophu7dqfc41g0.apps.googleusercontent.com",
              "client_type": 3
            },
            {
              "client_id": "644983599736-q2dhb37oasvmhobti58cbnk66neel1s9.apps.googleusercontent.com",
              "client_type": 2,
              "ios_info": {
                "bundle_id": "com.OneQlikVTSdemo.ionic"
              }
            }
          ]
        }
      }
    }
  ],
  "configuration_version": "1"
}